Week 5 - Read/Modify/Summarize Data
…
Third, here we use an inner_join all variables except for G1, G2, G3, paid, and absences.

Joining with `by = join_by(school, sex, age, address, famsize, Pstatus, Medu,
Fedu, Mjob, Fjob, reason, guardian, traveltime, studytime, failures, schoolsup,
famsup, activities, nursery, higher, internet, romantic, famrel, freetime,
goout, Dalc, Walc, health)`

Last, we’re choosing 4 categorical variables (sex, address, famsize, Pstatus) we’re interested in and converting them into factor variables in each tibble. We’re doing this for the math data, POrtuguese data, and the combined data each.

Task 2: Summarize the Data (Very Basic EDA

For the items on the combined data, final_join, we’ll be doing the following: one, looking at how the data is stored and two, documenting the missing values in the data.

# A tibble: 320 × 33
   school sex      age address famsize    Pstatus  Medu  Fedu Mjob  Fjob  reason
   <chr>  <fct>  <int> <fct>   <fct>      <fct>   <int> <int> <chr> <chr> <chr> 
 1 GP     Female    18 Urban   greater t… apart       4     4 at_h… teac… course
 2 GP     Female    17 Urban   greater t… living…     1     1 at_h… other course
 3 GP     Female    15 Urban   greater t… living…     4     2 heal… serv… home  
 4 GP     Female    16 Urban   greater t… living…     3     3 other other home  
 5 GP     Male      16 Urban   less or e… living…     4     3 serv… other reput…
 6 GP     Male      16 Urban   less or e… living…     2     2 other other home  
 7 GP     Female    17 Urban   greater t… apart       4     4 other teac… home  
 8 GP     Male      15 Urban   less or e… apart       3     2 serv… other home  
 9 GP     Male      15 Urban   greater t… living…     3     4 other other home  
10 GP     Female    15 Urban   greater t… living…     4     4 teac… heal… reput…
# ℹ 310 more rows
# ℹ 22 more variables: guardian <chr>, traveltime <int>, studytime <int>,
#   failures <int>, schoolsup <chr>, famsup <chr>, paid <chr>,
#   activities <chr>, nursery <chr>, higher <chr>, internet <chr>,
#   romantic <chr>, famrel <int>, freetime <int>, goout <int>, Dalc <int>,
#   Walc <int>, health <int>, absences <int>, G1 <int>, G2 <int>, G3 <int>
…
This side-by-side graph, even though same in values as the stacked bar graph, allows for easier visual comparison of the values between the sexes.

Numeric Variables (and across groups)

First we’ll find the measures of center and spread for three variables (age = student’s age (numeric: from 15 to 22), absences = number of school absences (numeric: from 0 to 93), and G3 = final grade (numeric: from 0 to 20, output target)). As a note for later, G1 = first period grade (numeric: from 0 to 20) and G2 = second period grade (numeric: from 0 to 20).

[1]  0.0  0.0  4.0  7.5 75.0

[1] 18.75

[1] -11.25

# A tibble: 308 × 33
   school sex      age address famsize    Pstatus  Medu  Fedu Mjob  Fjob  reason
   <chr>  <fct>  <int> <fct>   <fct>      <fct>   <int> <int> <chr> <chr> <chr> 
 1 GP     Female    18 Urban   greater t… apart       4     4 at_h… teac… course
 2 GP     Female    17 Urban   greater t… living…     1     1 at_h… other course
 3 GP     Female    15 Urban   greater t… living…     4     2 heal… serv… home  
 4 GP     Female    16 Urban   greater t… living…     3     3 other other home  
 5 GP     Male      16 Urban   less or e… living…     4     3 serv… other reput…
 6 GP     Male      16 Urban   less or e… living…     2     2 other other home  
 7 GP     Female    17 Urban   greater t… apart       4     4 other teac… home  
 8 GP     Male      15 Urban   less or e… apart       3     2 serv… other home  
 9 GP     Male      15 Urban   greater t… living…     3     4 other other home  
10 GP     Female    15 Urban   greater t… living…     4     4 teac… heal… reput…
# ℹ 298 more rows
# ℹ 22 more variables: guardian <chr>, traveltime <int>, studytime <int>,
#   failures <int>, schoolsup <chr>, famsup <chr>, paid <chr>,
#   activities <chr>, nursery <chr>, higher <chr>, internet <chr>,
#   romantic <chr>, famrel <int>, freetime <int>, goout <int>, Dalc <int>,
#   Walc <int>, health <int>, absences <int>, G1 <int>, G2 <int>, G3 <int>
…
